﻿# Anbennar: racial traits

knight_errant_character = {
	age = { 18 32 }
	random_traits = no
	culture = root.location.culture
	faith = root.location.faith
	random_traits_list = {
		count = 1
		education_martial_2 = {}
		education_martial_3 = {}
		education_martial_4 = {}
	}
	random_traits_list = {
		count = 1
		brave = {}
		just = {}
		gallant = {}
	}
	random_traits_list = {
		count = 1
		lustful = {}
		chaste = {}
		wrathful = {}
		arrogant = {}
		impatient = {}
		ambitious = {}
		stubborn = {}
		beauty_good_1 = {}
	}
	martial = {
		min_template_high_skill
		max_template_high_skill
	}
	prowess = { 8 12 }
	gender_female_chance = root_soldier_female_chance
	after_creation = {
		if = {
			limit = { has_dlc_feature = tours_and_tournaments }
			add_trait = tourney_participant
			add_random_tourney_participant_level_effect = yes
		}
		
		#Anbennar
		if = {
			limit = {
				NOT = { has_racial_trait = yes }
			}
			assign_racial_trait_effect = yes
		}
	}
}

knight = {
	age = { 18 32 }
	random_traits = yes
	culture = root.culture
	faith = root.faith
	random_traits_list = {
		count = 1
		education_martial_2 = {}
		education_martial_3 = {}
		education_martial_4 = {}
	}
	random_traits_list = {
		count = 1
		brave = {}
		just = {}
		gallant = {}
		honest = {}
		gregarious = {}
		generous = {}
		diligent = {}
		wrathful = {}
	}
	random_traits_list = {
		count = 1
		lustful = {}
		chaste = {}
		wrathful = {}
		arrogant = {}
		impatient = {}
		deceitful = {}
		ambitious = {}
		stubborn = {}
		fickle = {}
		beauty_good_1 = {}
	}
	martial = {
		min_template_high_skill
		max_template_high_skill
	}
	prowess = { 8 12 }
	gender_female_chance = root_soldier_female_chance
	
	#Anbennar
	after_creation = {
		if = {
			limit = {
				NOT = { has_racial_trait = yes }
			}
			assign_racial_trait_effect = yes
		}
	}
}

wandering_knight_character = {
	age = { 18 35 }
	random_traits_list = {
		count = 1
		education_martial_2 = {}
		education_martial_3 = {}
	}
	random_traits_list = {
		count = 1
		brave = {}
		just = {}
	}
	random_traits_list = { #Something nice
		count = 1
		honest = {}
		gregarious = {}
		trusting = {}
		compassionate = {}
		generous = {}
		humble = {}
		calm = {}
	}
	random_traits_list = {
		count = 1
		lustful = {}
		chaste = {}
		arrogant = {}
		impatient = {}
		patient = {}
		ambitious = {}
		cynical = {}
		zealous = {}
		stubborn = {}
	}
	random_traits = no
	faith = root.faith
	culture = root.culture
	martial = {
		min_template_low_skill
		max_template_low_skill
	}
	prowess = {
		min_template_decent_skill
		max_template_decent_skill
	}
	diplomacy = {
		min_template_decent_skill
		max_template_decent_skill
	}
	gender_female_chance = root_soldier_female_chance
	after_creation = {
		if = {
			limit = { has_dlc_feature = tours_and_tournaments }
			add_trait = tourney_participant
			add_random_tourney_participant_level_effect = yes
		}
		
		#Anbennar
		if = {
			limit = {
				NOT = { has_racial_trait = yes }
			}
			assign_racial_trait_effect = yes
		}
	}
}
