6781 = {

    # Misc
	holding = none

    # History
}
6782 = {

	holding = none

    # History
}
6783 = {

    # Misc
    holding = none

    # History
}
6784 = {

    # Misc
    culture = wood_elvish
    religion = fey_court
	holding = tribal_holding

    # History
}
6785 = {

    # Misc
    holding = none

    # History
}
6786 = {

    # Misc
    culture = wood_elvish
    religion = fey_court
	holding = tribal_holding

    # History
}
6787 = {

    # Misc
    holding = none

    # History
}
6788 = {

    # Misc
    culture = wood_elvish
    religion = fey_court
	holding = tribal_holding

    # History
}
6789 = {

    # Misc
    holding = none

    # History
}
6790 = {

    # Misc
    holding = none

    # History
}
6791 = {

    # Misc
    culture = wood_elvish
    religion = fey_court
	holding = tribal_holding

    # History
}
6792 = {

    # Misc
    holding = none

    # History
}
6793 = {

    # Misc
    holding = none

    # History
}
6794 = {

    # Misc
    holding = none

    # History
}
6795 = {

    # Misc
    holding = none

    # History
}
6796 = {

    # Misc
    holding = none

    # History
}
6797 = {

    # Misc
    holding = none

    # History
}
6798 = {

    # Misc
    culture = wood_elvish
    religion = fey_court
	holding = tribal_holding

    # History
}
6799 = {

    # Misc
    culture = wood_elvish
    religion = fey_court
	holding = tribal_holding

    # History
}
6800 = {

    # Misc
    holding = none

    # History
}
6801 = {

    # Misc
    holding = none

    # History
}
6802 = {

    # Misc
    culture = wood_elvish
    religion = fey_court
	holding = tribal_holding

    # History
}
6803 = {

    # Misc
    holding = none

    # History
}
6804 = {

    # Misc
    holding = none

    # History
}
6805 = {

    # Misc
    culture = wood_elvish
    religion = fey_court
	holding = tribal_holding

    # History
}
6806 = {

    # Misc
    holding = none

    # History
}
6807 = {

    # Misc
    holding = none

    # History
}
6808 = {

    # Misc
    holding = none

    # History
}
6809 = {

    # Misc
    holding = none

    # History
}
6810 = {

    # Misc
    holding = none

    # History
}
6811 = {

    # Misc
    culture = wood_elvish
    religion = fey_court
	holding = tribal_holding

    # History
}
6812 = {

    # Misc
    holding = none

    # History
}
6813 = {

    # Misc
    holding = none

    # History
}
6814 = {

    # Misc
    holding = none

    # History
}
6815 = {

    # Misc
    holding = none

    # History
}
6816 = {

    # Misc
    culture = wood_elvish
    religion = fey_court
	holding = tribal_holding

    # History
}
6817 = {

    # Misc
    culture = wood_elvish
    religion = fey_court
	holding = tribal_holding

    # History
}
6818 = {

    # Misc
    holding = none

    # History
}
6819 = {

    # Misc
    holding = none

    # History
}
6820 = {

    # Misc
    holding = none

    # History
}
6821 = {

    # Misc
    culture = wood_elvish
    religion = fey_court
	holding = tribal_holding

    # History
}
6822 = {

    # Misc
    holding = none

    # History
}
6823 = {

    # Misc
    holding = none

    # History
}
6824 = {

    # Misc
    holding = none

    # History
}
6825 = {

    # Misc
    holding = none

    # History
}
6826 = {

    # Misc
    holding = none

    # History
}
6827 = {

    # Misc
    holding = none

    # History
}
6828 = {

    # Misc
    culture = wood_elvish
    religion = fey_court
	holding = tribal_holding
    # History
}
6829 = {

    # Misc
    culture = wood_elvish
    religion = fey_court
	holding = tribal_holding

    # History
}
6830 = {

    # Misc
    holding = none

    # History
}
6831 = {

    # Misc
    holding = none

    # History
}
6832 = {

    # Misc
    culture = wood_elvish
    religion = fey_court
	holding = tribal_holding

    # History
}
6833 = {

    # Misc
    holding = none

    # History
}
6834 = {

    # Misc
    holding = none

    # History
}
6835 = {

    # Misc
    culture = wood_elvish
    religion = fey_court
	holding = tribal_holding

    # History
}
6836 = {

    # Misc
    holding = none

    # History
}
6837 = {

    # Misc
    holding = none

    # History
}
6838 = {

    # Misc
    holding = none

    # History
}
6839 = {

    # Misc
    holding = none

    # History
}
6840 = {

    # Misc
    holding = none
    # History
}
6841 = {

    # Misc
    holding = none

    # History
}
6842 = {

    # Misc
    holding = none

    # History
}
6843 = {

    # Misc
    holding = none

    # History
}
6844 = {

    # Misc
    holding = none

    # History
}
6845 = {

    # Misc
    culture = wood_elvish
    religion = fey_court
	holding = tribal_holding

    # History
}
6846 = {

    # Misc
    holding = none

    # History
}
6847 = {

    # Misc
    holding = none

    # History
}
6848 = {

    # Misc
    culture = wood_elvish
    religion = fey_court
	holding = tribal_holding

    # History
}
6849 = {

    # Misc
    holding = none

    # History
}
6850 = {

    # Misc
    holding = none

    # History
}
6851 = {

    # Misc
    holding = none

    # History
}
6852 = {

    # Misc
    culture = wood_elvish
    religion = fey_court
	holding = tribal_holding

    # History
}
6853 = {

    # Misc
    holding = none

    # History
}
6854 = {

    # Misc
    holding = none

    # History
}
6855 = {

    # Misc
    holding = none

    # History
}
6856 = {

    # Misc
    holding = none

    # History
}
6857 = {

    # Misc
    culture = wood_elvish
    religion = fey_court
	holding = tribal_holding

    # History
}
6858 = {

    # Misc
    holding = none

    # History
}
6859 = {

    # Misc
    holding = none

    # History
}
6860 = {

    # Misc
    culture = wood_elvish
    religion = fey_court
	holding = tribal_holding

    # History
}
6861 = {

    # Misc
    holding = none
    # History
}
6862 = {

    # Misc
    holding = none

    # History
}
6863 = {

    # Misc
    holding = none

    # History
}
6864 = {

    # Misc
    holding = none

    # History
}
6865 = {

    # Misc
    culture = wood_elvish
    religion = fey_court
	holding = tribal_holding

    # History
}
6866 = {

    # Misc
    holding = none

    # History
}
6867 = {

    # Misc
    holding = none

    # History
}
6868 = {

    # Misc
    holding = none

    # History
}
6869 = {

    # Misc
    culture = wood_elvish
    religion = fey_court
	holding = tribal_holding

    # History
}
6870 = {

    # Misc
    culture = wood_elvish
    religion = fey_court
	holding = tribal_holding

    # History
}
6871 = {

    # Misc
    holding = none

    # History
}
6872 = {

    # Misc
    holding = none

    # History
}
6873 = {

    # Misc
    holding = none

    # History
}
6874 = {

    # Misc
    holding = none

    # History
}
6875 = {

    # Misc
    holding = none

    # History
}
6876 = {

    # Misc
    holding = none

    # History
}
6877 = {

    # Misc
    holding = none

    # History
}
6878 = {

    # Misc
    holding = none

    # History
}
6879 = {

    # Misc
    culture = wood_elvish
    religion = fey_court
	holding = tribal_holding

    # History
}
6880 = {

    # Misc
    holding = none

    # History
}
6881 = {

    # Misc
    culture = wood_elvish
    religion = fey_court
	holding = tribal_holding

    # History
}
6882 = {

    # Misc
    holding = none

    # History
}
6883 = {

    # Misc
    holding = none

    # History
}
6884 = {

    # Misc
    holding = none

    # History
}
6885 = {

    # Misc
    holding = none

    # History
}
6886 = {

    # Misc
    culture = wood_elvish
    religion = fey_court
	holding = tribal_holding

    # History
}
6887 = {

    # Misc
    holding = none

    # History
}
6888 = {

    # Misc
    holding = none

    # History
}
6889 = {

    # Misc
    holding = none

    # History
}
6890 = {

    # Misc
    holding = none

    # History
}
6891 = {

    # Misc
    holding = none

    # History
}
6892 = {

    # Misc
    holding = none

    # History
}
6893 = {

    # Misc
    holding = none

    # History
}
6894 = {

    # Misc
    holding = none

    # History
}
6895 = {

    # Misc
    holding = none

    # History
}
6896 = {

    # Misc
    holding = none

    # History
}
6897 = {

    # Misc
    culture = wood_elvish
    religion = fey_court
	holding = tribal_holding

    # History
}
6898 = {

    # Misc
    holding = none

    # History
}
6899 = {

    # Misc
    holding = none

    # History
}
6900 = {

    # Misc
    culture = wood_elvish
    religion = fey_court
	holding = tribal_holding

    # History
}
6901 = {

    # Misc
    holding = none

    # History
}
6902 = {

    # Misc
    holding = none

    # History
}