197 = {

    # Misc
    culture = greenscale
    religion = kobold_dragon_cult
	holding = tribal_holding

    # History
}

200 = {

    # Misc
    culture = greenscale
    religion = kobold_dragon_cult
	holding = tribal_holding

    # History
}

694 = {

    # Misc
    culture = greenscale
    religion = kobold_dragon_cult
	holding = tribal_holding

    # History
}
6460 = { 
    # Misc
    holding = none

    # History
}
6461 = {
    # Misc
    holding = none

    # History
}
6462 = {
    # Misc
    holding = none

    # History
}
6463 = {
    # Misc
    holding = none

    # History
}
6464 = {
    # Misc
    holding = none

    # History
}
6465 = {
    # Misc
    holding = none

    # History
}
6466 = {
    # Misc
    holding = none

    # History
}