#k_apasih
##d_keruhar
###c_edesukeru
2923 = {

    # Misc
    culture = masnsih
    religion = cult_of_the_sands
	holding = tribal_holding

    # History
}
6733 = {

    # Misc
    culture = masnsih
    religion = cult_of_the_sands
	holding = none

    # History
}
###c_subkaliss
4400 = {

    # Misc
    culture = masnsih
    religion = cult_of_the_sands
	holding = tribal_holding

    # History
}
6734 = {

    # Misc
    culture = masnsih
    religion = cult_of_the_sands
	holding = none

    # History
}
###c_piruharran
2926 = {

    # Misc
    culture = masnsih
    religion = cult_of_the_sands
	holding = tribal_holding

    # History
}
6735 = {

    # Misc
    culture = masnsih
    religion = cult_of_the_sands
	holding = tribal_holding

    # History
}
###c_shimlardu
2927 = {

    # Misc
    culture = masnsih
    religion = cult_of_the_sands
	holding = tribal_holding

    # History
}
6736 = {

    # Misc
    culture = masnsih
    religion = cult_of_the_sands
	holding = none

    # History
}
##d_kesudsah
###c_kesud
2924 = {

    # Misc
    culture = masnsih
    religion = cult_of_the_sands
	holding = tribal_holding

    # History
}
6737 = {

    # Misc
    culture = masnsih
    religion = cult_of_the_sands
	holding = none

    # History
}
###c_daqalm
2925 = {

    # Misc
    culture = masnsih
    religion = cult_of_the_sands
	holding = tribal_holding

    # History
}
6738 = {

    # Misc
    culture = masnsih
    religion = cult_of_the_sands
	holding = none

    # History
}
##d_saranza
###c_saranza
2928 = {

    # Misc
    culture = masnsih
    religion = cult_of_the_sands
	holding = tribal_holding

    # History
}
6739 = {

    # Misc
    culture = masnsih
    religion = cult_of_the_sands
	holding = none

    # History
}
###c_ardulib
2929 = {

    # Misc
    culture = masnsih
    religion = cult_of_the_sands
	holding = tribal_holding

    # History
}
6740 = {

    # Misc
    culture = masnsih
    religion = cult_of_the_sands
	holding = none

    # History
}
###c_edenlil
2930 = {

    # Misc
    culture = masnsih
    religion = cult_of_the_sands
	holding = tribal_holding

    # History
}
6741 = {

    # Misc
    culture = masnsih
    religion = cult_of_the_sands
	holding = none

    # History
}
##d_arsagnu
###c_arsagnu
2913 = {

    # Misc
    culture = masnsih
    religion = cult_of_the_sands
	holding = tribal_holding

    # History
}
6742 = {

    # Misc
    culture = masnsih
    religion = cult_of_the_sands
	holding = none

    # History
}
6743 = {

    # Misc
    culture = masnsih
    religion = cult_of_the_sands
	holding = city_holding

    # History
}
###c_sahkuz
2912 = {

    # Misc
    culture = masnsih
    religion = cult_of_the_sands
	holding = tribal_holding

    # History
}
6744 = {

    # Misc
    culture = masnsih
    religion = cult_of_the_sands
	holding = none

    # History
}
6745 = {

    # Misc
    culture = masnsih
    religion = cult_of_the_sands
	holding = none

    # History
}
###c_sahnuses
2911 = {

    # Misc
    culture = masnsih
    religion = cult_of_the_sands
	holding = tribal_holding

    # History
}
6746 = {

    # Misc
    culture = masnsih
    religion = cult_of_the_sands
	holding = none

    # History
}