185 = {

    # Misc
    culture = bluescale
    religion = kobold_dragon_cult
	holding = tribal_holding

    # History
}

186 = {

    # Misc
    culture = bluescale
    religion = kobold_dragon_cult
	holding = tribal_holding

    # History
}

189 = {

    # Misc
    culture = bluescale
    religion = kobold_dragon_cult
	holding = tribal_holding

    # History
}

4643 = {

    # Misc
    culture = greenscale
    religion = kobold_dragon_cult
	holding = tribal_holding

    # History
}

4644 = {

    # Misc
    culture = bluescale
    religion = kobold_dragon_cult
	holding = tribal_holding

    # History
}

4645 = {

    # Misc
    culture = greenscale
    religion = kobold_dragon_cult
	holding = tribal_holding

    # History
}

4646 = {

    # Misc
    culture = bluescale
    religion = kobold_dragon_cult
	holding = tribal_holding

    # History
}
6445={
    # Misc
    holding = none

    # History
}
6446={
    # Misc
    holding = none

    # History
}
6447={
    # Misc
    holding = none

    # History
}
6448={
    # Misc
    holding = none

    # History
}
6449={
    # Misc
    holding = none

    # History
}
6450={
    # Misc
    holding = none

    # History
}
6451={
    # Misc
    holding = none

    # History
}
6452={
    # Misc
    holding = none

    # History
}
6453={
    # Misc
    holding = none

    # History
}
6454={
    # Misc
    holding = none

    # History
}
6455={
    # Misc
    holding = none

    # History
}
6456={
    # Misc
    holding = none

    # History
}
6457={
    # Misc
    holding = none

    # History
}
6458={
    # Misc
    holding = none

    # History
}
6459={
    # Misc
    holding = none

    # History
}