﻿object={
	name="castanor wall 04"
	render_pass=Map
	clamp_to_water_level=no
	generated_content=no
	layer="temp_layer"
	pdxmesh="castanor_wall_01_d_mesh"
	count=46
	transform="2217.592041 0.000000 2828.958008 0.000000 -0.232176 0.000000 0.972674 1.000000 1.000000 1.000000
2181.488037 0.000000 2823.692383 0.000000 -0.129548 0.000000 0.991573 1.000000 1.000000 1.000000
2261.272949 0.000000 2820.924072 0.000000 0.999413 0.000000 -0.034269 1.000000 1.000000 1.000000
2284.249268 0.000000 2815.787598 0.000000 0.938001 0.000000 -0.346632 1.000000 1.000000 1.000000
2295.874512 0.000000 2813.660645 0.000000 -0.086105 0.000000 0.996286 1.000000 1.000000 1.000000
2306.946533 0.000000 2804.044922 0.000000 -0.822273 0.000000 0.569094 1.000000 1.000000 1.000000
2314.324219 0.000000 2794.242920 0.000000 -0.944485 0.000000 0.328555 1.000000 1.000000 1.000000
2327.722900 0.000000 2789.315186 0.000000 -0.999982 0.000000 -0.005925 1.000000 1.000000 1.000000
2350.093506 0.000000 2788.912842 0.000000 0.015624 0.000000 0.999878 1.000000 1.000000 1.000000
2385.974365 0.000000 2769.148926 0.000000 0.321546 0.000000 0.946894 1.000000 1.000000 1.000000
2416.772217 0.000000 2742.862061 0.000000 0.978070 0.000000 -0.208277 1.000000 1.000000 1.000000
2423.946045 0.000000 2741.509766 0.000000 0.999649 0.000000 0.026482 1.000000 1.000000 1.000000
2431.435059 0.000000 2742.283447 0.000000 -0.084494 0.000000 0.996424 1.000000 1.000000 1.000000
2443.644775 0.000000 2741.332031 0.000000 0.998501 0.000000 -0.054726 1.000000 1.000000 1.000000
2498.598145 0.000000 2737.933350 0.000000 0.999760 0.000000 0.021905 1.000000 1.000000 1.000000
2505.530029 0.000000 2739.785400 0.000000 0.972753 0.000000 0.231845 1.000000 1.000000 1.000000
2519.239258 0.000000 2741.483887 0.000000 0.221863 0.000000 0.975078 1.000000 1.000000 1.000000
2524.663574 0.000000 2779.007812 0.000000 -0.815053 0.000000 0.579387 1.000000 1.000000 1.000000
2521.821289 0.000000 2785.901367 0.000000 0.535160 0.000000 0.844751 1.000000 1.000000 1.000000
2517.023926 0.000000 2791.116211 0.000000 0.260657 0.000000 0.965432 1.000000 1.000000 1.000000
2510.085449 0.000000 2800.404785 0.000000 -0.726827 0.000000 0.686821 1.000000 1.000000 1.000000
2510.383789 0.000000 2807.959473 0.000000 0.757255 0.000000 0.653119 1.000000 1.000000 1.000000
2511.133301 0.000000 2822.462891 0.000000 -0.673356 0.000000 0.739318 1.000000 1.000000 1.000000
2511.058105 0.000000 2834.971436 0.000000 0.583339 0.000000 0.812229 1.000000 1.000000 1.000000
2505.966064 0.000000 2848.780518 0.000000 0.457507 0.000000 0.889206 1.000000 1.000000 1.000000
2489.872559 0.000000 2862.019531 0.000000 0.642802 0.000000 0.766032 1.000000 1.000000 1.000000
2593.558838 0.000000 2963.162109 0.000000 0.996052 0.000000 0.088776 1.000000 1.000000 1.000000
2600.239258 0.000000 2966.035156 0.000000 0.951635 0.000000 0.307231 1.000000 1.000000 1.000000
2606.495850 0.000000 2969.984375 0.000000 -0.257709 0.000000 0.966223 1.000000 1.000000 1.000000
2612.483887 0.000000 2974.109131 0.000000 0.946325 0.000000 0.323218 1.000000 1.000000 1.000000
2216.730957 0.000000 2855.753418 0.000000 0.063464 0.000000 0.997984 1.000000 1.000000 1.000000
2224.087891 0.000000 2854.827148 0.000000 0.996971 0.000000 -0.077776 1.000000 1.000000 1.000000
2231.356201 0.000000 2855.029785 0.000000 0.994276 0.000000 0.106847 1.000000 1.000000 1.000000
2245.550537 0.000000 2866.520752 0.000000 -0.569800 0.000000 0.821783 1.000000 1.000000 1.000000
2247.420898 0.000000 2873.664062 0.000000 0.752833 0.000000 0.658211 1.000000 1.000000 1.000000
2247.320312 0.000000 2881.010010 0.000000 0.648117 0.000000 0.761541 1.000000 1.000000 1.000000
2244.399658 0.000000 2887.511719 0.000000 0.433685 0.000000 0.901065 1.000000 1.000000 1.000000
2238.906494 0.000000 2892.344482 0.000000 0.257355 0.000000 0.966317 1.000000 1.000000 1.000000
2231.904297 0.000000 2894.406982 0.000000 0.000000 0.000000 1.000000 1.000000 1.000000 1.000000
2224.366211 0.000000 2894.065918 0.000000 0.998703 0.000000 0.050907 1.000000 1.000000 1.000000
2216.885010 0.000000 2893.008057 0.000000 -0.090817 0.000000 0.995868 1.000000 1.000000 1.000000
2194.894043 0.000000 2857.073486 0.000000 0.999746 0.000000 -0.022525 1.000000 1.000000 1.000000
2187.989990 0.000000 2858.983154 0.000000 0.970307 0.000000 -0.241875 1.000000 1.000000 1.000000
2182.629639 0.000000 2863.750732 0.000000 0.881011 0.000000 -0.473097 1.000000 1.000000 1.000000
2179.998047 0.000000 2870.399902 0.000000 0.762151 0.000000 -0.647399 1.000000 1.000000 1.000000
2182.071533 0.000000 2876.069580 0.000000 -0.950643 0.000000 -0.310287 1.000000 1.000000 1.000000
"}
object={
	name="castanor wall 05"
	render_pass=Map
	clamp_to_water_level=no
	generated_content=no
	layer="temp_layer"
	pdxmesh="castanor_wall_01_e_mesh"
	count=46
	transform="2170.825928 0.000000 2820.229492 0.000000 -0.160436 0.000000 0.987046 1.000000 1.000000 1.000000
2063.289062 0.000000 2835.038330 0.000000 0.748640 0.000000 0.662977 1.000000 1.000000 1.000000
2059.340088 0.000000 2875.156982 0.000000 0.543384 0.000000 0.839484 1.000000 1.000000 1.000000
2038.910278 0.000000 2899.995605 0.000000 0.379256 0.000000 0.925292 1.000000 1.000000 1.000000
2039.853760 0.000000 2925.020264 0.000000 -0.411406 0.000000 0.911452 1.000000 1.000000 1.000000
2059.459961 0.000000 2959.958496 0.000000 -0.838008 0.000000 0.545658 1.000000 1.000000 1.000000
2059.054688 0.000000 2964.509277 0.000000 0.682688 0.000000 0.730710 1.000000 1.000000 1.000000
2070.178711 0.000000 3006.727783 0.000000 -0.527896 0.000000 0.849309 1.000000 1.000000 1.000000
2148.494141 0.000000 3055.859863 0.000000 -0.354801 0.000000 0.934942 1.000000 1.000000 1.000000
2229.920410 0.000000 3089.460205 0.000000 -0.124251 0.000000 0.992251 1.000000 1.000000 1.000000
2110.121826 0.000000 3016.238281 0.000000 -0.359448 0.000000 0.933165 1.000000 1.000000 1.000000
2184.949219 0.000000 3058.406250 0.000000 -0.006531 0.000000 0.999979 1.000000 1.000000 1.000000
2133.340576 0.000000 3032.876221 0.000000 -0.285492 0.000000 0.958381 1.000000 1.000000 1.000000
2522.641602 0.000000 2739.817627 0.000000 0.261658 0.000000 0.965161 1.000000 1.000000 1.000000
2408.474609 0.000000 2745.443115 0.000000 0.110158 0.000000 0.993914 1.000000 1.000000 1.000000
2378.753418 0.000000 2780.337402 0.000000 -0.644670 0.000000 0.764461 1.000000 1.000000 1.000000
2210.316406 0.000000 2824.958008 0.000000 -0.209228 0.000000 0.977867 1.000000 1.000000 1.000000
2264.804199 0.000000 2820.542969 0.000000 -0.159442 0.000000 0.987207 1.000000 1.000000 1.000000
2307.997314 0.000000 2800.759766 0.000000 0.388316 0.000000 0.921526 1.000000 1.000000 1.000000
2344.114014 0.000000 2789.295410 0.000000 -0.000214 0.000000 1.000000 1.000000 1.000000 1.000000
2453.452393 0.000000 2739.104492 0.000000 0.097866 0.000000 0.995200 1.000000 1.000000 1.000000
2497.791748 0.000000 2737.177246 0.000000 -0.055026 0.000000 0.998485 1.000000 1.000000 1.000000
2530.136230 0.000000 2770.333496 0.000000 0.624626 0.000000 0.780924 1.000000 1.000000 1.000000
2510.325195 0.000000 2796.727295 0.000000 -0.815300 0.000000 0.579039 1.000000 1.000000 1.000000
2511.739014 0.000000 2827.306641 0.000000 0.745984 0.000000 0.665964 1.000000 1.000000 1.000000
2497.211426 0.000000 2923.279785 0.000000 -0.149432 0.000000 0.988772 1.000000 1.000000 1.000000
2615.621094 0.000000 2976.757080 0.000000 -0.459893 0.000000 0.887974 1.000000 1.000000 1.000000
2572.340820 0.000000 2960.393311 0.000000 -0.144029 0.000000 0.989574 1.000000 1.000000 1.000000
2532.760986 0.000000 2946.086426 0.000000 -0.393962 0.000000 0.919127 1.000000 1.000000 1.000000
2179.636475 0.000000 2873.958008 0.000000 0.793999 0.000000 0.607920 1.000000 1.000000 1.000000
2188.787109 0.000000 2886.506104 0.000000 0.896721 0.000000 0.442596 1.000000 1.000000 1.000000
2181.583252 0.000000 2864.563965 0.000000 0.512703 0.000000 0.858566 1.000000 1.000000 1.000000
2190.107178 0.000000 2857.568848 0.000000 0.145810 0.000000 0.989313 1.000000 1.000000 1.000000
2213.176270 0.000000 2856.426514 0.000000 0.008179 0.000000 0.999967 1.000000 1.000000 1.000000
2241.526367 0.000000 2858.530762 0.000000 -0.251896 0.000000 0.967754 1.000000 1.000000 1.000000
2247.206299 0.000000 2870.903076 0.000000 -0.537169 0.000000 0.843474 1.000000 1.000000 1.000000
2247.995361 0.000000 2879.174072 0.000000 0.628123 0.000000 0.778114 1.000000 1.000000 1.000000
2234.046143 0.000000 2894.717285 0.000000 0.046065 0.000000 0.998938 1.000000 1.000000 1.000000
2213.472168 0.000000 2892.412842 0.000000 -0.193504 0.000000 0.981099 1.000000 1.000000 1.000000
2224.759277 0.000000 2893.768555 0.000000 -0.077346 0.000000 0.997004 1.000000 1.000000 1.000000
2193.629395 0.000000 2888.283447 0.000000 -0.191228 0.000000 0.981546 1.000000 1.000000 1.000000
2203.851074 0.000000 2890.120850 0.000000 -0.110158 0.000000 0.993914 1.000000 1.000000 1.000000
2242.688721 0.000000 2889.799561 0.000000 0.451608 0.000000 0.892216 1.000000 1.000000 1.000000
2233.981445 0.000000 2855.485352 0.000000 -0.152509 0.000000 0.988302 1.000000 1.000000 1.000000
2244.301514 0.000000 2863.793945 0.000000 -0.657065 0.000000 0.753834 1.000000 1.000000 1.000000
2200.904785 0.000000 2856.675293 0.000000 0.000000 0.000000 1.000000 1.000000 1.000000 1.000000
"}
