﻿object={
	name="bridge 01"
	render_pass=MapUnderWater
	clamp_to_water_level=no
	generated_content=no
	layer="temp_layer"
	pdxmesh="bridge_01_mesh"
	count=22
	transform="2599.950439 0.478271 3670.013672 0.000000 0.247966 0.000000 0.968769 1.088550 1.088550 1.088550
820.831055 2.765503 537.380493 0.000000 0.922063 0.000000 0.387039 1.000000 1.000000 1.000000
926.682007 2.467651 647.567627 0.000000 0.035279 0.000000 0.999377 1.000000 1.000000 1.000000
1090.883057 2.471741 636.384094 0.000000 0.323049 0.000000 0.946382 1.000000 1.000000 1.000000
1281.182861 0.633820 455.339600 0.000000 0.006287 0.000000 0.999980 1.000000 1.000000 1.000000
1391.802246 1.837311 379.500336 0.000000 0.385643 0.000000 0.922648 1.000000 1.000000 1.000000
1490.171143 2.751358 260.415131 0.000000 -0.996579 0.000000 -0.082644 1.000000 1.000000 1.000000
1533.750000 1.937057 115.710915 0.000000 -0.764808 0.000000 0.644259 1.000000 1.000000 1.000000
1530.273438 1.300034 45.237511 0.000000 0.614613 0.000000 0.788828 1.000000 1.000000 1.000000
4636.471191 1.617188 1450.236206 0.000000 -0.362066 0.000000 0.932152 1.000000 1.000000 1.000000
4713.086426 0.765625 1496.105957 0.000000 -0.289497 0.000000 0.957179 1.000000 1.000000 1.000000
4642.469727 1.508057 1546.074707 0.000000 0.605789 0.000000 0.795626 1.000000 1.000000 1.000000
4786.248047 1.030273 1554.336304 0.000000 0.000000 0.000000 1.000000 1.000000 1.000000 1.000000
1065.442017 0.000000 2273.024658 0.000000 0.000000 0.000000 1.000000 0.536816 0.536816 0.536816
0.000000 0.000000 0.000000 0.000000 0.000000 0.000000 1.000000 1.000000 1.000000 1.000000
0.000000 0.000000 0.000000 0.000000 0.000000 0.000000 1.000000 1.000000 1.000000 1.000000
0.000000 0.000000 0.000000 0.000000 0.000000 0.000000 1.000000 1.000000 1.000000 1.000000
0.000000 0.000000 0.000000 0.000000 0.000000 0.000000 1.000000 1.000000 1.000000 1.000000
0.000000 0.000000 0.000000 0.000000 0.000000 0.000000 1.000000 1.000000 1.000000 1.000000
0.000000 0.000000 0.000000 0.000000 0.000000 0.000000 1.000000 1.000000 1.000000 1.000000
0.000000 0.000000 0.000000 0.000000 0.000000 0.000000 1.000000 1.000000 1.000000 1.000000
2232.604248 0.000000 2829.466309 0.000000 0.000000 0.000000 1.000000 0.603906 0.603906 0.603906
"}
